{
  "template": "cmake",
  "prebuild": "./get_deps.sh $ARCH_TRIPLET",
  "dependencies_build": [
    "curl"
  ],
  "dependencies_target": [
    "libpoppler-qt5-dev",
    "qtdeclarative5-dev",
    "qtbase5-dev",
    "qtdeclarative5-private-dev"
  ]
}
